%YAML 1.1
%TAG !u! tag:unity3d.com,2011:
--- !u!1 &1805934238790129549
GameObject:
  m_ObjectHideFlags: 0
  m_CorrespondingSourceObject: {fileID: 0}
  m_PrefabInstance: {fileID: 0}
  m_PrefabAsset: {fileID: 0}
  serializedVersion: 6
  m_Component:
  - component: {fileID: 1805934238790129555}
  - component: {fileID: 1805934238790129554}
  - component: {fileID: 1805934238790129552}
  m_Layer: 0
  m_Name: PunnetworkManager
  m_TagString: Untagged
  m_Icon: {fileID: 0}
  m_NavMeshLayer: 0
  m_StaticEditorFlags: 0
  m_IsActive: 1
--- !u!4 &1805934238790129555
Transform:
  m_ObjectHideFlags: 0
  m_CorrespondingSourceObject: {fileID: 0}
  m_PrefabInstance: {fileID: 0}
  m_PrefabAsset: {fileID: 0}
  m_GameObject: {fileID: 1805934238790129549}
  m_LocalRotation: {x: 0, y: 0, z: 0, w: 1}
  m_LocalPosition: {x: 8.8, y: 1, z: 9.05}
  m_LocalScale: {x: 1, y: 1, z: 1}
  m_Children: []
  m_Father: {fileID: 0}
  m_RootOrder: 0
  m_LocalEulerAnglesHint: {x: 0, y: 0, z: 0}
--- !u!114 &1805934238790129554
MonoBehaviour:
  m_ObjectHideFlags: 0
  m_CorrespondingSourceObject: {fileID: 0}
  m_PrefabInstance: {fileID: 0}
  m_PrefabAsset: {fileID: 0}
  m_GameObject: {fileID: 1805934238790129549}
  m_Enabled: 1
  m_EditorHideFlags: 0
  m_Script: {fileID: 11500000, guid: 875bd1f820188494cb235953547f33ba, type: 3}
  m_Name: 
  m_EditorClassIdentifier: 
  AutoConnect: 1
  Version: 1
  GamePlayerL04: {fileID: 2571073591619344726, guid: 0f5baa83365ac8c41ab91bf805e1ed2d,
    type: 3}
  GamePlayerL38: {fileID: 8432871067324596157, guid: 75e4d652e069a1d488a9158acd8f06e7,
    type: 3}
--- !u!114 &1805934238790129552
MonoBehaviour:
  m_ObjectHideFlags: 0
  m_CorrespondingSourceObject: {fileID: 0}
  m_PrefabInstance: {fileID: 0}
  m_PrefabAsset: {fileID: 0}
  m_GameObject: {fileID: 1805934238790129549}
  m_Enabled: 1
  m_EditorHideFlags: 0
  m_Script: {fileID: 11500000, guid: 62880f27e95abf2418fd79e9d9d568b4, type: 3}
  m_Name: 
  m_EditorClassIdentifier: 
  GuiOffset:
    serializedVersion: 2
    x: 250
    y: 0
    width: 300
    height: 300
  DontDestroy: 1
  ServerTimestamp: 1
  DetailedConnection: 1
  Server: 1
  AppVersion: 1
  UserId: 1
  Room: 1
  RoomProps: 1
  LocalPlayer: 1
  PlayerProps: 1
  Others: 1
  Buttons: 0
  ExpectedUsers: 0
