%YAML 1.1
%TAG !u! tag:unity3d.com,2011:
--- !u!1045 &1
EditorBuildSettings:
  m_ObjectHideFlags: 0
  serializedVersion: 2
  m_Scenes:
  - enabled: 1
    path: Assets/Scenes/Lobby.unity
    guid: d2c20e3cc2213ac48ae3ac6091ede205
  - enabled: 1
    path: Assets/Scenes/Level_1.unity
    guid: 153b8b8323899454e9268248058235c8
  - enabled: 1
    path: Assets/Scenes/Level_2.unity
    guid: 7d066dd25a5694d4dbda0eaff9895f8d
  - enabled: 1
    path: Assets/Scenes/Level_3.unity
    guid: 89df04b18accf144799675d89e4e8498
  - enabled: 1
    path: Assets/Scenes/Level_4.unity
    guid: 86dae74f114347c44b1abebdd285b44b
  - enabled: 1
    path: Assets/Scenes/Level_5.unity
    guid: 2bcaaf8f9a878ed498e46f0a4028ca80
  m_configObjects: {}
